%YAML 1.1
%TAG !u! tag:unity3d.com,2011:
--- !u!114 &11400000
MonoBehaviour:
  m_ObjectHideFlags: 0
  m_CorrespondingSourceObject: {fileID: 0}
  m_PrefabInstance: {fileID: 0}
  m_PrefabAsset: {fileID: 0}
  m_GameObject: {fileID: 0}
  m_Enabled: 1
  m_EditorHideFlags: 0
  m_Script: {fileID: 11500000, guid: bc517fbff55be2c42a04f52b9a636d3b, type: 3}
  m_Name: BlockB2
  m_EditorClassIdentifier: 
  name: "H\u1EA3i Anh"
  dialogue:
  - Lecture hall B2 is one of the lecture halls of ULIS.
  - It has 5 floors, including 13 halls with a capacity of 150 students located mainly
    on the 1st and 4th floors.
  - 'The first floor is a common workspace for staff, lecturers and students with
    an area of 175 square meters. '
  - In addition, the 3rd floor also has high-class intelligent classrooms for International
    Link students.
  - 'The 4th floor is 3 special halls for foreign language training, with a capacity
    of up to 250 people, serving the training of cadres and civil servants. '
  - "Gi\u1EA3ng \u0111\u01B0\u1EDDng B2 l\xE0 m\u1ED9t trong nh\u1EEFng gi\u1EA3ng
    \u0111\u01B0\u1EDDng ch\xEDnh c\u1EE7a \u0110\u1EA1i h\u1ECDc Ngo\u1EA1i Ng\u1EEF."
  - "Gi\u1EA3ng \u0111\u01B0\u1EDDng c\xF3 5 t\u1EA7ng, g\u1ED3m 13 h\u1ED9i tr\u01B0\u1EDDng
    v\u1EDBi s\u1EE9c ch\u1EE9a 150 sinh vi\xEAn n\u1EB1m ch\u1EE7 y\u1EBFu \u1EDF
    t\u1EA7ng 1 v\xE0 t\u1EA7ng 4\r."
  - "T\u1EA7ng 1 l\xE0 kh\xF4ng gian l\xE0m vi\u1EC7c chung c\u1EE7a c\xE1n b\u1ED9,
    gi\u1EA3ng vi\xEAn v\xE0 sinh vi\xEAn v\u1EDBi di\u1EC7n t\xEDch 175 m\xE9t vu\xF4ng."
  - "B\xEAn c\u1EA1nh \u0111\xF3, t\u1EA7ng 3 c\xF2n c\xF3 c\xE1c ph\xF2ng h\u1ECDc
    th\xF4ng minh cao c\u1EA5p d\xE0nh cho sinh vi\xEAn h\u1EC7 Li\xEAn k\u1EBFt
    Qu\u1ED1c t\u1EBF."
  - "T\u1EA7ng 4 l\xE0 3 h\u1ED9i tr\u01B0\u1EDDng \u0111\u1EB7c d\u1EE5ng d\xE0nh
    cho vi\u1EC7c b\u1ED3i d\u01B0\u1EE1ng ngo\u1EA1i ng\u1EEF, c\xF3 s\u1EE9c ch\u1EE9a
    l\xEAn l\xEAn t\u1EDBi 250 ng\u01B0\u1EDDi, ph\u1EE5c v\u1EE5 c\xF4ng t\xE1c
    b\u1ED3i d\u01B0\u1EE1ng c\xE1n b\u1ED9, c\xF4ng ch\u1EE9c vi\xEAn ch\u1EE9c."
  - . . .
