%YAML 1.1
%TAG !u! tag:unity3d.com,2011:
--- !u!114 &11400000
MonoBehaviour:
  m_ObjectHideFlags: 0
  m_CorrespondingSourceObject: {fileID: 0}
  m_PrefabInstance: {fileID: 0}
  m_PrefabAsset: {fileID: 0}
  m_GameObject: {fileID: 0}
  m_Enabled: 1
  m_EditorHideFlags: 0
  m_Script: {fileID: 11500000, guid: bc517fbff55be2c42a04f52b9a636d3b, type: 3}
  m_Name: BlockG3NPC
  m_EditorClassIdentifier: 
  name: "H\u1EA3i Anh  "
  dialogue:
  - G3 is the lecture hall of the School of Law.
  - The lecture hall is designed according to the terraced architecture.
  - This is the place where the meetings of the faculty, the union, the association
    are held.
  - "G3 l\xE0 gi\u1EA3ng \u0111\u01B0\u1EDDng c\u1EE7a Khoa Lu\u1EADt."
  - "Khu gi\u1EA3ng \u0111\u01B0\u1EDDng \u0111\u01B0\u1EE3c thi\u1EBFt k\u1EBF theo
    ki\u1EBFn tr\xFAc b\u1EADc thang."
  - "\u0110\xE2y l\xE0 n\u01A1i t\u1ED5 ch\u1EE9c c\xE1c cu\u1ED9c h\u1ECDp c\u1EE7a
    khoa, \u0111o\xE0n, h\u1ED9i..."
  - . . .
