%YAML 1.1
%TAG !u! tag:unity3d.com,2011:
--- !u!114 &11400000
MonoBehaviour:
  m_ObjectHideFlags: 0
  m_CorrespondingSourceObject: {fileID: 0}
  m_PrefabInstance: {fileID: 0}
  m_PrefabAsset: {fileID: 0}
  m_GameObject: {fileID: 0}
  m_Enabled: 1
  m_EditorHideFlags: 0
  m_Script: {fileID: 11500000, guid: bc517fbff55be2c42a04f52b9a636d3b, type: 3}
  m_Name: NhaAnNPC
  m_EditorClassIdentifier: 
  name: "H\u1EA3i Anh"
  dialogue:
  - The student cafeteria in the Foreign Language Dormitory is a place belonging
    to the Dormitory Management Board, where students can eat and drink.
  - 'The student cafeteria is clean, ensures food hygiene and safety, and is affordable,
    suitable for students. '
  - "Nh\xE0 \u0103n sinh vi\xEAn \u1EDF KTX Ngo\u1EA1i Ng\u1EEF l\xE0 n\u01A1i thu\u1ED9c
    Ban qu\u1EA3n l\xFD k\xFD t\xFAc x\xE1, l\xE0 n\u01A1i ph\u1EE5c v\u1EE5 h\u1ECDc
    sinh sinh vi\xEAn \u0103n u\u1ED1ng."
  - "Nh\xE0 \u0103n sinh vi\xEAn s\u1EA1ch s\u1EBD, \u0111\u1EA3m b\u1EA3o v\u1EC7
    sinh an to\xE0n th\u1EF1c ph\u1EA9m, \u0111\u1ED3ng th\u1EDDi gi\xE1 c\u1EA3
    ph\u1EA3i ch\u0103ng, ph\xF9 h\u1EE3p v\u1EDBi h\u1ECDc sinh sinh vi\xEAn.\r\n"
  - . . .
